numpy>=1.23.5
pandas==1.4.4
joblib==1.1.1
matplotlib==3.8.0
seaborn==0.11.1
scipy>=1.11.1
scikit-learn==1.3.1
tqdm>=4.61.1
chaospy==4.3.3
emcee==3.0.2
corner==2.2.1
h5py==3.9.0
statsmodels==0.14.2
multiprocess==0.70.16
datasets==2.20.0
umbridge==1.2.4
